Lab 9
…
Question 1

names <- names |> 
  mutate(Sex = Gender)

allisonname <- names |> 
  select(Name, Year, State, Count, Sex) |> 
  group_by(State, Sex) |> 
  filter(Name == "Allison") |> 
  summarize(Count = sum(Count), .groups = "keep") |> 
  pivot_wider(names_from = Sex, values_from = Count) |> 
  mutate(M = coalesce(M, 0))
allisonname

# A tibble: 51 × 3
# Groups:   State [51]
   State     F     M
   <chr> <dbl> <dbl>
 1 AK      232     0
 2 AL     1535     0
 3 AR     1198     0
 4 AZ     1880     0
 5 CA    12413     0
 6 CO     1594     0
 7 CT     1099     0
 8 DC      321     0
 9 DE      294     0
10 FL     4455     0
# … with 41 more rows
…
