Preview Activity 10
…
Rows: 77 Columns: 16
── Column specification ────────────────────────────────────────────────────────
Delimiter: ","
chr  (3): name, mfr, type
dbl (13): calories, protein, fat, sodium, fiber, carbo, sugars, potass, vita...

ℹ Use `spec()` to retrieve the full column specification for this data.
ℹ Specify the column types or set `show_col_types = FALSE` to quiet this message.

cereals_long <- cereals|>
  pivot_longer("protein" : "fiber", names_to = "Nutrient", values_to = "Amount") |> 
  select(name, Nutrient, Amount)
cereals_long

# A tibble: 308 × 3
   name              Nutrient Amount
   <chr>             <chr>     <dbl>
 1 100% Bran         protein       4
 2 100% Bran         fat           1
 3 100% Bran         sodium      130
 4 100% Bran         fiber        10
 5 100% Natural Bran protein       3
 6 100% Natural Bran fat           5
 7 100% Natural Bran sodium       15
 8 100% Natural Bran fiber         2
 9 All-Bran          protein       4
10 All-Bran          fat           1
# … with 298 more rows
…
