Lab 3
…
# A tibble: 1 × 2
  word       mean_familiarity
  <fct>                 <dbl>
1 what it do             4.57

The most familiar phrase for non-white women is “what it do”, while the least familiar phrases are “break someone out”, “dollar cab”, “domino”, “dukey rope”, “humming”, “plex”, “rollie”, and “The Nation”.

familiar_men <- ethnic_cleaned |>
  filter(ethnic == "white", sex == "Male", age > 30) |>
  group_by(word) |>
  summarize(mean_familiarity = mean(familiarity))

slice_min(familiar_men, mean_familiarity, n = 1)

# A tibble: 59 × 2
   word              mean_familiarity
   <fct>                        <dbl>
 1 [to be] ghost                    1
 2 A-town                           1
 3 ashy                             1
 4 ay yo trip                       1
 5 ballin'                          1
 6 beezy                            1
 7 bones                            1
 8 boo                              1
 9 boughie                          1
10 break someone out                1
# … with 49 more rows
…
